    0     1    3.66 0.000033  0.000400995 -3.76865e-12  9.9980001   0.000401000 0 10.0000000 
    1     2    3.50 0.000032  0.000581596 9.56542e-12  9.9879999   0.000581600 0 10.0000000 
    2     3    3.84 0.000035  0.000762186 7.16325e-12 10.0109997   0.000762200 0 10.0000000 
    3     4    4.04 0.000034  0.000942820 -3.98725e-11 10.0086660   0.000942800 0 10.0000000 
    4     0  616.22 0.000099  0.001123400 0  9.9963331   0.001123400 0 10.0000000 
    5     5  616.22 0.000099  0.001123400 0  9.9963331   0.001123400 0 10.0000000 
    6     6    3.95 0.000228  0.001303961 0  9.9976664   0.001304000 0 10.0000000 
    7     7    3.80 0.000161  0.001484656 3.48812e-12 10.0089998   0.001484600 0 10.0000000 
    8     8    4.43 0.000064  0.001665227 -3.12995e-11  9.9940004   0.001665200 0 10.0000000 
    9     9    4.18 0.000099  0.001845835 -5.6378e-11  9.9993334   0.001845800 0 10.0000000 
   10    10    4.69 0.000163  0.002026392 -4.76109e-11 10.0120001   0.002026400 0 10.0000000 
   11    11    4.25 0.000032  0.002206942 1.19265e-10  9.9969997   0.002207000 0 10.0000000 
   12    12    3.99 0.000032  0.002387636 0  9.9936666   0.002387600 0 10.0000000 
   13    13    4.25 0.000096  0.002568097 -5.43066e-11  9.9956665   0.002568200 0 10.0000000 
   14    14    4.69 0.000065  0.002748883 1.67918e-10 10.0013332   0.002748800 0 10.0000000 
   15    15    4.66 0.000033  0.002929345 0  9.9956675   0.002929400 0 10.0000000 
   16    16    4.28 0.000097  0.003110074 -1.9729e-10  9.9960003   0.003110000 0 10.0000000 
   17    17    4.62 0.000161  0.003290514 1.62359e-10 10.0016670   0.003290600 0 10.0000000 
   18    18    4.12 0.000193  0.003471278 -7.34013e-11 10.0056658   0.003471200 0 10.0000000 
   19    19    4.42 0.000032  0.003651768 7.72202e-11 10.0039997   0.003651800 0 10.0000000 
   20    20    4.95 0.000065  0.003832304 -1.80087e-11  9.9993334   0.003832400 0 10.0000000 
   21    21    4.23 0.000162  0.004013050 1.88573e-11  9.9926662   0.004013000 0 10.0000000 
   22    22    4.56 0.000131  0.004193737 -9.853e-12  9.9939995   0.004193600 0 10.0000000 
   23    23    3.92 0.000064  0.004374134 -9.24959e-11  9.9896669   0.004374200 0 10.0000000 
   24    24    4.05 0.000130  0.004554988 -9.63149e-11 10.0000000   0.004554800 0 10.0000000 
   25    25    4.30 0.000066  0.004735525 -7.78818e-11  9.9893332   0.004735400 0 10.0000000 
   26    26    4.47 0.000065  0.004916080 3.00308e-10 10.0010004   0.004916000 0 10.0000000 
   27    27    4.57 0.000196  0.005096479 9.5797e-11 10.0070000   0.005096600 0 10.0000000 
   28    28    4.12 0.000193  0.005277213 -2.47979e-11 10.0089998   0.005277200 0 10.0000000 
   29    29    3.92 0.000065  0.005457889 -3.84698e-11  9.9930000   0.005457800 0 10.0000000 
   30    30    4.45 0.000192  0.005638541 -3.97428e-11 10.0063334   0.005638400 0 10.0000000 
   31    31    4.03 0.000065  0.005818825 0  9.9940004   0.005819000 0 10.0000000 
   32    32    4.37 0.000456  0.005999795 2.96021e-10 10.0110006   0.005999600 0 10.0000000 
   33    33    4.23 0.000064  0.006180084 0  9.9896660   0.006180200 0 10.0000000 
   34    34    4.35 0.000065  0.006360609 0  9.9896669   0.006360800 0 10.0000000 
   35    35    4.59 0.000321  0.006541383 0  9.9976664   0.006541400 0 10.0000000 
   36    36    4.19 0.000065  0.006721882 1.42142e-10 10.0056658   0.006722000 0 10.0000000 
   37    37    4.37 0.000065  0.006902358 -1.45961e-10  9.9983330   0.006902600 0 10.0000000 
   38    38    4.74 0.000064  0.007083413 4.99266e-11 10.0113335   0.007083200 0 10.0000000 
   39    39    4.54 0.000649  0.007263709 1.70665e-11 10.0093336   0.007263800 0 10.0000000 
   40    40    5.18 0.000257  0.007444568 -2.44872e-10 10.0110006   0.007444400 0 10.0000000 
   41    41    5.04 0.000129  0.007624914 0  9.9883337   0.007625000 0 10.0000000 
   42    42    4.30 0.000130  0.007805268 -1.46716e-10 10.0023336   0.007805600 0 10.0000000 
   43    43    4.54 0.000064  0.007986090 -4.8786e-10 10.0073328   0.007986200 0 10.0000000 
   44    44    4.11 0.000263  0.008166647 1.53505e-10  9.9989996   0.008166800 0 10.0000000 
   45    45    4.03 0.000391  0.008347149 4.707e-10  9.9943333   0.008347400 0 10.0000000 
   46    46    4.34 0.000129  0.008527914 1.40258e-10  9.9879999   0.008528000 0 10.0000000 
   47    47    4.25 0.000896  0.008708730 1.8415e-10 10.0019999   0.008708600 0 10.0000000 
   48    48    3.84 0.000131  0.008889111 -2.08855e-11  9.9916658   0.008889200 0 10.0000000 
   49    49    4.28 0.000907  0.009069799 -8.52392e-11 10.0120001   0.009069800 0 10.0000000 
   50    50    4.06 0.000128  0.009250667 -5.43353e-10  9.9960003   0.009250400 0 10.0000000 
   51    51    4.44 0.000131  0.009430788 -1.32951e-10 10.0066662   0.009431000 0 10.0000000 
   52    52    4.70 0.000520  0.009611552 3.16159e-10 10.0109997   0.009611600 0 10.0000000 
   53    53    3.72 0.000129  0.009792103 1.15035e-10  9.9986658   0.009792200 0 10.0000000 
   54    54    4.25 0.000131  0.009972912 1.40589e-10  9.9903336   0.009972800 0 10.0000000 
   55    55    4.25 0.000130  0.010153172 -2.86269e-10 10.0026665   0.010153400 0 10.0000000 
   56    56    4.63 0.000258  0.010334182 2.18521e-10  9.9963331   0.010334000 0 10.0000000 
   57    57    4.31 0.000385  0.010514165 -1.72931e-10 10.0016661   0.010514600 0 10.0000000 
   58    58    4.24 0.000652  0.010694892 -1.50772e-10  9.9906664   0.010695200 0 10.0000000 
   59    59    4.17 0.000129  0.010875842 1.78871e-10 10.0109997   0.010875800 0 10.0000000 
   60    60    4.50 0.000386  0.011056054 -3.89661e-10 10.0083332   0.011056400 0 10.0000000 
   61    61    4.33 0.000653  0.011236578 -7.92051e-11 10.0096664   0.011237000 0 10.0000000 
   62    62    3.89 0.000389  0.011417228 -2.6826e-11  9.9966669   0.011417600 0 10.0000000 
   63    63    3.97 0.000258  0.011598055 -1.36252e-10  9.9913340   0.011598200 0 10.0000000 
   64    64    4.35 0.000128  0.011778667 -1.38373e-10  9.9933338   0.011778800 0 10.0000000 
   65    65    4.21 0.000390  0.011959370 1.68594e-10  9.9890003   0.011959400 0 10.0000000 
   66    66    4.43 0.000129  0.012140000 1.14093e-10 10.0103331   0.012140000 0 10.0000000 
   67    67    4.10 0.000257  0.012320878 1.44738e-10 10.0019999   0.012320600 0 10.0000000 
   68    68    4.38 0.001042  0.012501450 -8.81159e-11  9.9910002   0.012501200 0 10.0000000 
   69    69    4.28 0.000129  0.012681626 2.08574e-10 10.0063334   0.012681800 0 10.0000000 
   70    70    4.63 0.000129  0.012862384 2.41765e-10  9.9920006   0.012862400 0 10.0000000 
   71    71    4.36 0.000130  0.013042706 3.98384e-10 10.0089998   0.013043000 0 10.0000000 
   72    72    4.88 0.000389  0.013223501 4.66039e-10 10.0063334   0.013223600 0 10.0000000 
   73    73    3.97 0.000773  0.013403898 -9.44808e-11  9.9919996   0.013404200 0 10.0000000 
   74    74    4.22 0.000128  0.013584953 0  9.9940004   0.013584800 0 10.0000000 
   75    75    4.00 0.000130  0.013765504 0  9.9933338   0.013765400 0 10.0000000 
   76    76    4.14 0.000517  0.013945599 6.22565e-10 10.0066662   0.013946000 0 10.0000000 
   77    77    4.09 0.000514  0.014126617 0  9.9976664   0.014126600 0 10.0000000 
   78    78    4.72 0.000910  0.014307522 -3.36152e-10  9.9989996   0.014307200 0 10.0000000 
   79    79    4.54 0.000129  0.014487620 2.38277e-10  9.9976664   0.014487800 0 10.0000000 
   80    80    4.68 0.000772  0.014668860 -3.44639e-10  9.9963331   0.014668400 0 10.0000000 
   81    81    3.73 0.000512  0.014849446 6.97764e-11 10.0019999   0.014849000 0 10.0000000 
   82    82    5.25 0.000907  0.015029074 0  9.9959993   0.015029600 0 10.0000000 
   83    83    4.41 0.000387  0.015210543 2.14421e-10  9.9893332   0.015210200 0 10.0000000 
   84    84    4.22 0.000898  0.015391031 1.44645e-10  9.9963331   0.015390800 0 10.0000000 
   85    85    4.20 0.000519  0.015570777 0  9.9973335   0.015571400 0 10.0000000 
   86    86    4.59 0.002453  0.015752217 3.70098e-10  9.9920006   0.015752000 0 10.0000000 
   87    87    4.26 0.000771  0.015932681 3.74342e-10 10.0059996   0.015932600 0 10.0000000 
   88    88    4.11 0.000130  0.016113805 2.27151e-10 10.0076666   0.016113200 0 10.0000000 
   89    89    4.17 0.000788  0.016294187 -3.06263e-10 10.0093336   0.016293800 0 10.0000000 
   90    90    4.12 0.001802  0.016474215 -2.32243e-10 10.0106668   0.016474400 0 10.0000000 
   91    91    3.82 0.000520  0.016655000 -2.34789e-10  9.9903336   0.016655000 0 10.0000000 
   92    92    3.79 0.000263  0.016835093 -1.18667e-10  9.9939995   0.016835600 0 10.0000000 
   93    93    3.94 0.000258  0.017016051 1.1994e-10  9.9919996   0.017016200 0 10.0000000 
   94    94    4.38 0.000521  0.017197123 -2.02022e-10  9.9879999   0.017196800 0 10.0000000 
   95    95    4.15 0.000527  0.017377509 -1.22486e-10  9.9930000   0.017377400 0 10.0000000 
   96    96    3.93 0.000258  0.017558176 1.15509e-09 10.0110006   0.017558000 0 10.0000000 
   97    97    4.69 0.000783  0.017738134 2.91742e-10  9.9973335   0.017738600 0 10.0000000 
   98    98    4.62 0.001054  0.017918572 4.21017e-11  9.9973335   0.017919200 0 10.0000000 
   99    99    4.08 0.002586  0.018100208 2.97682e-10 10.0056667   0.018099800 0 10.0000000 
  100   100    4.21 0.001567  0.018280834 2.14752e-10 10.0016661   0.018280400 0 10.0000000 
  101   101    4.55 0.000769  0.018460747 -3.90372e-10 10.0053329   0.018461000 0 10.0000000 
  102   102    3.77 0.000259  0.018641319 0 10.0050001   0.018641600 0 10.0000000 
  103   103    4.16 0.000261  0.018822506 -5.74904e-10 10.0000000   0.018822200 0 10.0000000 
  104   104    4.39 0.000257  0.019003227 0  9.9963341   0.019002800 0 10.0000000 
  105   105    4.59 0.000259  0.019183544 2.70432e-10 10.0076666   0.019183400 0 10.0000000 
  106   106    3.92 0.000523  0.019364752 4.09467e-10  9.9886665   0.019364000 0 10.0000000 
  107   107    3.91 0.001800  0.019544674 5.51048e-10  9.9886665   0.019544600 0 10.0000000 
  108   108    4.94 0.000519  0.019725718 1.52939e-09  9.9923334   0.019725200 0 10.0000000 
  109   109    4.73 0.001048  0.019906249 1.40308e-10  9.9879999   0.019905800 0 10.0000000 
  110   110    3.82 0.000258  0.020085948 -1.32142e-09 10.0016661   0.020086400 0 10.0000000 
  111   111    4.12 0.000260  0.020266417 -4.28562e-10  9.9893332   0.020267000 0 10.0000000 
  112   112    4.29 0.000262  0.020447243 -1.92169e-10  9.9936666   0.020447600 0 10.0000000 
  113   113    3.95 0.000774  0.020628510 -9.69333e-11  9.9893332   0.020628200 0 10.0000000 
  114   114    4.68 0.000520  0.020808227 4.8891e-10 10.0070000   0.020808800 0 10.0000000 
  115   115    4.74 0.000262  0.020989532 1.97261e-10 10.0076666   0.020989400 0 10.0000000 
  116   116    4.15 0.000258  0.021170212 -2.48698e-10 10.0120001   0.021170000 0 10.0000000 
  117   117    4.19 0.002083  0.021350039 1.10361e-09  9.9939995   0.021350600 0 10.0000000 
  118   118    3.63 0.000256  0.021531766 1.01177e-10 10.0070000   0.021531200 0 10.0000000 
  119   119    4.53 0.000517  0.021711746 -6.12151e-10  9.9913340   0.021711800 0 10.0000000 
  120   120    3.73 0.000521  0.021892976 -4.62932e-10 10.0059996   0.021892400 0 10.0000000 
  121   121    4.54 0.000257  0.022073746 -1.03722e-10 10.0053329   0.022073000 0 10.0000000 
  122   122    3.90 0.000259  0.022253156 -1.56857e-10 10.0063334   0.022253600 0 10.0000000 
  123   123    3.84 0.000522  0.022434536 -5.27099e-11  9.9956665   0.022434200 0 10.0000000 
  124   124    4.25 0.000257  0.022614432 -1.06268e-10  9.9953337   0.022614800 0 10.0000000 
  125   125    4.19 0.000259  0.022794971 -5.35585e-10  9.9933329   0.022795400 0 10.0000000 
  126   126    4.38 0.000261  0.022976000 1.07966e-10  9.9879999   0.022976000 0 10.0000000 
  127   127    4.08 0.002058  0.023156049 -4.89665e-10  9.9926662   0.023156600 0 10.0000000 
